Extraire et retirer de l’information avec {dplyr}
…
Au final, le programme pourrait regrouper tous les résultats dans un seul jeu de données. Cependant, vous n’avez pas besoin d’écrire un tel programme ; c’est le travail de la fonction group_by() de {dplyr}.

group_by()

group_by() prend un jeu de données puis les noms d’une ou plusieurs colonnes de ce jeu de données. Il renvoie une copie du jeu de données qui a été “groupé” en ensembles de lignes qui partagent des combinaisons identiques de valeurs dans les colonnes spécifiées.

group_by() en action

Par exemple, le résultat ci-dessous est regroupé en lignes qui ont la même combinaison des valeurs year et sex : les garçons en 1900 sont traités comme un groupe, les filles en 1900 comme un autre groupe, etc.

prenoms %>%
  group_by(year, sex)

## # A tibble: 248,518 x 5
## # Groups:   year, sex [238]
##     year sex   name         n      prop
##    <int> <chr> <chr>    <int>     <dbl>
##  1  1900 M     Abel       378 0.00227  
##  2  1900 M     Abraham      8 0.0000480
##  3  1900 M     Achille    149 0.000894 
##  4  1900 M     Achilles     4 0.0000240
##  5  1900 M     Adam         9 0.0000540
##  6  1900 F     Adelaide   140 0.000629 
##  7  1900 F     Adèle      623 0.00280  
##  8  1900 F     Adelheid     3 0.0000135
##  9  1900 F     Adelina     25 0.000112 
## 10  1900 F     Adeline    168 0.000754 
## # … with 248,508 more rows

Utiliser group_by()

En soi, group_by() ne fait pas grand-chose. Il attribue des critères de regroupement qui sont stockés en tant que métadonnées à côté du jeu de données d’ origine. Si votre jeu de données est un tibble, comme ci-dessus, R vous indiquera que les données sont regroupées en haut de l’affichage du tibble. Sur tous les autres aspects, les données sont identiques.

Cependant, lorsque vous appliquez une fonction de {dplyr} comme summarise() aux données groupées, {dplyr} exécutera la fonction de manière groupée. Au lieu de calculer un seul résumé pour l’ensemble des données, {dplyr} calculera des résumés individuels pour chaque groupe, et les renverra sous la forme d’un seul jeu de données. Ce dernier possède autant de lignes que le nombre de modalité des variables qui servnet à grouper. Ce jeu de données contiendra les colonnes récapitulatives ainsi que les colonnes des critères de regroupement, ce qui rend le résultat déchiffrable :

prenoms %>%
  group_by(year, sex) %>% 
  summarise(total = sum(n))

# A tibble: 238 x 3
# Groups:   year [119]
    year sex    total
   <int> <chr>  <int>
 1  1900 F     222685
 2  1900 M     166617
 3  1901 F     242501
 4  1901 M     184867
 5  1902 F     246322
 6  1902 M     193231
 7  1903 F     246185
 8  1903 M     196194
 9  1904 F     249628
10  1904 M     202824
# … with 228 more rows

Pour comprendre exactement ce que fait group_by(), commentez la ligne group_by(year, sex) %>% du code ci-dessus et ré-exécutez-la. Comment les résultats changent-ils ?

Dégrouper 1

Si vous appliquez summarise() à des données groupées sur plusieurs variables, summarise() renverra des données elle aussi groupées mais sur une variable de moins . summarise() supprimera la dernière variable dans les critères de regroupement, ce qui crée un jeu de données regroupé à un niveau supérieur. Par exemple, cette instruction summarise() reçoit un jeu de données qui est regroupé par année et par sexe, mais elle renvoie un jeu de données qui n’est regroupée que par année.

prenoms %>%
  group_by(year, sex) %>% 
  summarise(total = sum(n))

## # A tibble: 238 x 3
## # Groups:   year [119]
##     year sex    total
##    <int> <chr>  <int>
##  1  1900 F     222685
##  2  1900 M     166617
##  3  1901 F     242501
##  4  1901 M     184867
##  5  1902 F     246322
##  6  1902 M     193231
##  7  1903 F     246185
##  8  1903 M     196194
##  9  1904 F     249628
## 10  1904 M     202824
## # … with 228 more rows
…
Si nous ajoutons un autre summarise() à notre pipe,

notre jeu de données sera d’abord regroupé par année et par sexe.

Puis il sera résumé dans un jeu de données regroupées par année (c’est-à-dire le résultat ci-dessus)

Puis il sera résumé dans un jeu de données final qui n’est pas groupé.

prenoms %>%
  group_by(year, sex) %>% 
  summarise(total = sum(n)) %>% 
  summarise(total = sum(total))

## # A tibble: 119 x 2
##     year  total
##    <int>  <int>
##  1  1900 389302
##  2  1901 427368
##  3  1902 439553
##  4  1903 442379
##  5  1904 452452
##  6  1905 462665
##  7  1906 474439
##  8  1907 473990
##  9  1908 497150
## 10  1909 498417
## # … with 109 more rows

Dégrouper 3

Si vous souhaitez supprimer manuellement les critères de regroupement d’un jeu de données, vous pouvez le faire avec ungroup().

prenoms %>%
  group_by(year, sex) %>% 
  ungroup()

## # A tibble: 248,518 x 5
##     year sex   name         n      prop
##    <int> <chr> <chr>    <int>     <dbl>
##  1  1900 M     Abel       378 0.00227  
##  2  1900 M     Abraham      8 0.0000480
##  3  1900 M     Achille    149 0.000894 
##  4  1900 M     Achilles     4 0.0000240
##  5  1900 M     Adam         9 0.0000540
##  6  1900 F     Adelaide   140 0.000629 
##  7  1900 F     Adèle      623 0.00280  
##  8  1900 F     Adelheid     3 0.0000135
##  9  1900 F     Adelina     25 0.000112 
## 10  1900 F     Adeline    168 0.000754 
## # … with 248,508 more rows

Et vous pouvez remplacer les informations de regroupement actuelles par un nouvel appel à group_by().

prenoms %>%
  group_by(year, sex) %>% 
  group_by(name)

## # A tibble: 248,518 x 5
## # Groups:   name [14,809]
##     year sex   name         n      prop
##    <int> <chr> <chr>    <int>     <dbl>
##  1  1900 M     Abel       378 0.00227  
##  2  1900 M     Abraham      8 0.0000480
##  3  1900 M     Achille    149 0.000894 
##  4  1900 M     Achilles     4 0.0000240
##  5  1900 M     Adam         9 0.0000540
##  6  1900 F     Adelaide   140 0.000629 
##  7  1900 F     Adèle      623 0.00280  
##  8  1900 F     Adelheid     3 0.0000135
##  9  1900 F     Adelina     25 0.000112 
## 10  1900 F     Adeline    168 0.000754 
## # … with 248,508 more rows
…
Vous en savez maintenant assez pour calculer les prénoms les plus populaires par nombre total d’enfants (cela peut demander un peu de stratégie, mais vous pouvez le faire !).

Dans le bloc de code ci-dessous, utilisez group_by(), summarise(), et arrange() pour afficher les dix prénoms les plus populaires. La popularité correspond au nombre total d’enfants d’un même sexe auxquels un prénom a été attribué toute années confondus. En d’autres termes, le nombre total de garçons nommés “Dominique” doit être calculé séparément du nombre total de filles nommées “Dominique”.

prenoms %>%
  group_by(name, sex) %>% 
  summarise(total = sum(n)) %>% 
  arrange(desc(total))

L’histoire des prénoms les plus populaires par nombre total d’enfants

Examinons comment la popularité des prénoms populaires a changé au fil du temps. Pour nous aider, nous avons créé top_10, qui est une version deprenoms qui est réduite aux dix prénoms les plus populaires comme calculés ci-dessus.

## # A tibble: 1,173 x 5
##     year sex   name         n     prop
##    <int> <chr> <chr>    <int>    <dbl>
##  1  1900 M     Alain       81 0.000486
##  2  1900 M     André     5527 0.0332  
##  3  1900 M     Jean     14093 0.0846  
##  4  1900 F     Jeanne   13977 0.0628  
##  5  1900 M     Louis     9049 0.0543  
##  6  1900 F     Marie    48708 0.219   
##  7  1900 M     Michel     725 0.00435 
##  8  1900 M     Philippe   322 0.00193 
##  9  1900 M     Pierre    7450 0.0447  
## 10  1900 M     René      4760 0.0286  
## # … with 1,163 more rows
…
Calculer le rang de chaque prénom pour chaque combinaison année-sexe. Le prénom le plus populaire recevrait le rang 1 et ainsi de suite.

Trouver le rang médian pour chaque prénom, en tenant compte du sexe. Les prénoms avec la médiane la plus basse seraient ceux qui “se classent régulièrement parmi les meilleurs prénoms d’année en année”.

Pour ce faire, nous allons devoir apprendre une dernière fonction de {dplyr} : mutate().

mutate()

mutate() utilise un jeu de données pour calculer de nouvelles variables. Elle renvoie ensuite une copie du jeu de données qui inclut les nouvelles variables. Par exemple, nous pouvons utiliser mutate() pour calculer une variable percent pour prenoms. Ici, le pourcentage est la proportion prop multiplié par 100 et arrondie à deux décimales.

prenoms %>%
  mutate(percent = round(prop * 100, digits = 2))

## # A tibble: 248,518 x 6
##     year sex   name         n      prop percent
##    <int> <chr> <chr>    <int>     <dbl>   <dbl>
##  1  1900 M     Abel       378 0.00227      0.23
##  2  1900 M     Abraham      8 0.0000480    0   
##  3  1900 M     Achille    149 0.000894     0.09
##  4  1900 M     Achilles     4 0.0000240    0   
##  5  1900 M     Adam         9 0.0000540    0.01
##  6  1900 F     Adelaide   140 0.000629     0.06
##  7  1900 F     Adèle      623 0.00280      0.28
##  8  1900 F     Adelheid     3 0.0000135    0   
##  9  1900 F     Adelina     25 0.000112     0.01
## 10  1900 F     Adeline    168 0.000754     0.08
## # … with 248,508 more rows
…
